<svg width="24" height="29" viewBox="0 0 24 29" fill="none" xmlns="http://www.w3.org/2000/svg">
<path d="M12 0C5.384 0 0 4.86983 0 10.854C0 14.3526 1.88 17.6559 5.032 19.691C5.08 19.7217 5.13 19.7507 5.18 19.7778C5.912 20.1668 5.984 21.4204 5.968 21.6501C5.9657 21.6875 5.96437 21.7249 5.964 21.7623V25.326C5.964 26.0062 6.384 26.6267 7.054 26.936L11.09 28.8011C11.3703 28.9309 11.6804 28.999 11.9953 29C12.3101 29.0009 12.6208 28.9347 12.902 28.8066L16.986 26.9415C17.3165 26.7906 17.5942 26.5597 17.7881 26.2745C17.982 25.9892 18.0844 25.6609 18.084 25.326V21.784C18.084 19.9985 19.29 19.4088 19.302 19.4034C19.462 19.3364 19.61 19.2496 19.744 19.1465C21.0783 18.128 22.1504 16.8582 22.8856 15.4258C23.6207 13.9935 24.0011 12.4332 24 10.854C24 4.86983 18.616 0 12 0ZM7.964 21.7641C7.964 21.7641 7.964 21.7279 7.966 21.708H16.09C16.09 21.7352 16.082 21.7551 16.082 21.784V23.517H7.964V21.7641V21.7641ZM12 27.1911L7.966 25.326H16.084L12 27.1911ZM18.452 17.7644C18.452 17.7644 17.112 18.3342 16.448 19.899H7.644C7.396 19.2731 6.966 18.6291 6.194 18.2185C4.89609 17.3826 3.83815 16.2779 3.10854 14.9968C2.37893 13.7156 1.99883 12.2952 2 10.854C2 5.85936 6.478 1.809 12 1.809C17.522 1.809 22 5.85936 22 10.854C22.0015 12.1702 21.6847 13.4708 21.0718 14.6645C20.4589 15.8582 19.5648 16.9163 18.452 17.7644ZM13 3.618C12.7348 3.618 12.4804 3.7133 12.2929 3.88293C12.1054 4.05255 12 4.28262 12 4.52251C12 4.76239 12.1054 4.99246 12.2929 5.16208C12.4804 5.33171 12.7348 5.42701 13 5.42701C15.25 5.42701 18 7.27762 18 10.0345C18 10.2744 18.1054 10.5045 18.2929 10.6741C18.4804 10.8437 18.7348 10.939 19 10.939C19.2652 10.939 19.5196 10.8437 19.7071 10.6741C19.8946 10.5045 20 10.2744 20 10.0345C20 5.9082 16.438 3.618 13 3.618Z" fill="#1B1818"/>
</svg>
